HWScott
…
library(dplyr)
mean_rtlog_long <- mono1 %>%
  dplyr::group_by(ParticipantID, WordOrder) %>%
  dplyr::summarise(RTlog = mean(RTlog,  na.rm = TRUE))

## `summarise()` has grouped output by 'ParticipantID'. You can override using the `.groups` argument.

mean_rtlog_long

## # A tibble: 280 x 3
## # Groups:   ParticipantID [140]
##    ParticipantID                    WordOrder   RTlog
##    <fct>                            <fct>       <dbl>
##  1 00e0b159cf5b9abcc73b92506d8b1c38 Congruent    3.24
##  2 00e0b159cf5b9abcc73b92506d8b1c38 Incongruent  3.47
##  3 021a49cde484f8fa18439f026ec99459 Congruent    3.22
##  4 021a49cde484f8fa18439f026ec99459 Incongruent  3.21
##  5 02810ff2a65eae2b3e54ac57d906309d Congruent    3.46
##  6 02810ff2a65eae2b3e54ac57d906309d Incongruent  3.36
##  7 037c50e80288a89b13f4c77e0b825789 Congruent    3.55
##  8 037c50e80288a89b13f4c77e0b825789 Incongruent  3.55
##  9 054635a48143f6d4dd711cbb00b9f6fd Congruent    3.22
## 10 054635a48143f6d4dd711cbb00b9f6fd Incongruent  3.18
## # ... with 270 more rows
…
